^E:\DROPBOX\WORKSPACE\OPENGL\CECRAFT\MINECRAFTCLONE\X64\DEBUG\APP.OBJ|E:\DROPBOX\WORKSPACE\OPENGL\CECRAFT\MINECRAFTCLONE\X64\DEBUG\GLM.OBJ|E:\DROPBOX\WORKSPACE\OPENGL\CECRAFT\MINECRAFTCLONE\X64\DEBUG\IMGUI.OBJ|E:\DROPBOX\WORKSPACE\OPENGL\CECRAFT\MINECRAFTCLONE\X64\DEBUG\IMGUI_DEMO.OBJ|E:\DROPBOX\WORKSPACE\OPENGL\CECRAFT\MINECRAFTCLONE\X64\DEBUG\IMGUI_DRAW.OBJ|E:\DROPBOX\WORKSPACE\OPENGL\CECRAFT\MINECRAFTCLONE\X64\DEBUG\IMGUI_IMPL_GLFW_GL3.OBJ|E:\DROPBOX\WORKSPACE\OPENGL\CECRAFT\MINECRAFTCLONE\X64\DEBUG\INDEXBUFFER.OBJ|E:\DROPBOX\WORKSPACE\OPENGL\CECRAFT\MINECRAFTCLONE\X64\DEBUG\RENDERER.OBJ|E:\DROPBOX\WORKSPACE\OPENGL\CECRAFT\MINECRAFTCLONE\X64\DEBUG\SHADER.OBJ|E:\DROPBOX\WORKSPACE\OPENGL\CECRAFT\MINECRAFTCLONE\X64\DEBUG\STB_IMAGE.OBJ|E:\DROPBOX\WORKSPACE\OPENGL\CECRAFT\MINECRAFTCLONE\X64\DEBUG\TEST.OBJ|E:\DROPBOX\WORKSPACE\OPENGL\CECRAFT\MINECRAFTCLONE\X64\DEBUG\TESTCLEARCOLOR.OBJ|E:\DROPBOX\WORKSPACE\OPENGL\CECRAFT\MINECRAFTCLONE\X64\DEBUG\TESTTEXTURE2D.OBJ|E:\DROPBOX\WORKSPACE\OPENGL\CECRAFT\MINECRAFTCLONE\X64\DEBUG\TEXTURE.OBJ|E:\DROPBOX\WORKSPACE\OPENGL\CECRAFT\MINECRAFTCLONE\X64\DEBUG\VERTEXARRAY.OBJ|E:\DROPBOX\WORKSPACE\OPENGL\CECRAFT\MINECRAFTCLONE\X64\DEBUG\VERTEXBUFFER.OBJ
E:\DROPBOX\WORKSPACE\OPENGL\CECRAFT\X64\DEBUG\MINECRAFTCLONE.EXE
E:\DROPBOX\WORKSPACE\OPENGL\CECRAFT\X64\DEBUG\MINECRAFTCLONE.ILK
E:\DROPBOX\WORKSPACE\OPENGL\CECRAFT\X64\DEBUG\MINECRAFTCLONE.PDB
