^E:\DROPBOX\WORKSPACE\OPENGL\MINECRAFTCLONE\MINECRAFTCLONE\X64\DEBUG\APP.OBJ
/OUT:"E:\DROPBOX\WORKSPACE\OPENGL\MINECRAFTCLONE\X64\DEBUG\MINECRAFTCLONE.EXE" /INCREMENTAL /NOLOGO /LIBPATH:"E:\DROPBOX\WORKSPACE\OPENGL\MINECRAFTCLONE\DEPENDENCIES\GLFW\LIB-VC2017" /LIBPATH:E:\DROPBOX\WORKSPACE\OPENGL\MINECRAFTCLONE\DEPENDENCIES\GLEW\LIB\RELEASE\X64 GLEW32S.LIB GLFW3.LIB OPENGL32.LIB USER32.LIB GDI32.LIB SHELL32.LIB /MANIFEST /MANIFESTUAC:"level='asInvoker' uiAccess='false'" /manifest:embed /DEBUG:FASTLINK /PDB:"E:\DROPBOX\WORKSPACE\OPENGL\MINECRAFTCLONE\X64\DEBUG\MINECRAFTCLONE.PDB" /TLBID:1 /DYNAMICBASE /NXCOMPAT /IMPLIB:"E:\DROPBOX\WORKSPACE\OPENGL\MINECRAFTCLONE\X64\DEBUG\MINECRAFTCLONE.LIB" /MACHINE:X64 X64\DEBUG\APP.OBJ
^E:\DROPBOX\WORKSPACE\OPENGL\CECRAFT\MINECRAFTCLONE\X64\DEBUG\APP.OBJ|E:\DROPBOX\WORKSPACE\OPENGL\CECRAFT\MINECRAFTCLONE\X64\DEBUG\GLM.OBJ|E:\DROPBOX\WORKSPACE\OPENGL\CECRAFT\MINECRAFTCLONE\X64\DEBUG\IMGUI.OBJ|E:\DROPBOX\WORKSPACE\OPENGL\CECRAFT\MINECRAFTCLONE\X64\DEBUG\IMGUI_DEMO.OBJ|E:\DROPBOX\WORKSPACE\OPENGL\CECRAFT\MINECRAFTCLONE\X64\DEBUG\IMGUI_DRAW.OBJ|E:\DROPBOX\WORKSPACE\OPENGL\CECRAFT\MINECRAFTCLONE\X64\DEBUG\IMGUI_IMPL_GLFW_GL3.OBJ|E:\DROPBOX\WORKSPACE\OPENGL\CECRAFT\MINECRAFTCLONE\X64\DEBUG\INDEXBUFFER.OBJ|E:\DROPBOX\WORKSPACE\OPENGL\CECRAFT\MINECRAFTCLONE\X64\DEBUG\RENDERER.OBJ|E:\DROPBOX\WORKSPACE\OPENGL\CECRAFT\MINECRAFTCLONE\X64\DEBUG\SHADER.OBJ|E:\DROPBOX\WORKSPACE\OPENGL\CECRAFT\MINECRAFTCLONE\X64\DEBUG\STB_IMAGE.OBJ|E:\DROPBOX\WORKSPACE\OPENGL\CECRAFT\MINECRAFTCLONE\X64\DEBUG\TEST.OBJ|E:\DROPBOX\WORKSPACE\OPENGL\CECRAFT\MINECRAFTCLONE\X64\DEBUG\TESTCLEARCOLOR.OBJ|E:\DROPBOX\WORKSPACE\OPENGL\CECRAFT\MINECRAFTCLONE\X64\DEBUG\TESTTEXTURE2D.OBJ|E:\DROPBOX\WORKSPACE\OPENGL\CECRAFT\MINECRAFTCLONE\X64\DEBUG\TEXTURE.OBJ|E:\DROPBOX\WORKSPACE\OPENGL\CECRAFT\MINECRAFTCLONE\X64\DEBUG\VERTEXARRAY.OBJ|E:\DROPBOX\WORKSPACE\OPENGL\CECRAFT\MINECRAFTCLONE\X64\DEBUG\VERTEXBUFFER.OBJ
/OUT:"E:\DROPBOX\WORKSPACE\OPENGL\CECRAFT\X64\DEBUG\MINECRAFTCLONE.EXE" /INCREMENTAL /NOLOGO /LIBPATH:"E:\DROPBOX\WORKSPACE\OPENGL\CECRAFT\DEPENDENCIES\GLFW\LIB-VC2017" /LIBPATH:E:\DROPBOX\WORKSPACE\OPENGL\CECRAFT\DEPENDENCIES\GLEW\LIB\RELEASE\X64 GLEW32S.LIB GLFW3.LIB OPENGL32.LIB USER32.LIB GDI32.LIB SHELL32.LIB /NODEFAULTLIB:LIBCMT /NODEFAULTLIB:MSVCRT /MANIFEST /MANIFESTUAC:"level='asInvoker' uiAccess='false'" /manifest:embed /DEBUG:FASTLINK /PDB:"E:\DROPBOX\WORKSPACE\OPENGL\CECRAFT\X64\DEBUG\MINECRAFTCLONE.PDB" /TLBID:1 /DYNAMICBASE /NXCOMPAT /IMPLIB:"E:\DROPBOX\WORKSPACE\OPENGL\CECRAFT\X64\DEBUG\MINECRAFTCLONE.LIB" /MACHINE:X64 X64\DEBUG\APP.OBJX64\DEBUG\INDEXBUFFER.OBJX64\DEBUG\RENDERER.OBJX64\DEBUG\SHADER.OBJX64\DEBUG\TEST.OBJX64\DEBUG\TESTCLEARCOLOR.OBJX64\DEBUG\TESTTEXTURE2D.OBJX64\DEBUG\TEXTURE.OBJX64\DEBUG\VERTEXARRAY.OBJX64\DEBUG\VERTEXBUFFER.OBJX64\DEBUG\GLM.OBJX64\DEBUG\IMGUI.OBJX64\DEBUG\IMGUI_DEMO.OBJX64\DEBUG\IMGUI_DRAW.OBJX64\DEBUG\IMGUI_IMPL_GLFW_GL3.OBJX64\DEBUG\STB_IMAGE.OBJ
